\relax 
\providecommand\babel@aux[2]{}
\@nameuse{bbl@beforestart}
\providecommand\hyper@newdestlabel[2]{}
\providecommand\HyField@AuxAddToFields[1]{}
\providecommand\HyField@AuxAddToCoFields[2]{}
\providecommand \oddpage@label [2]{}
\ifx\qr@savematrix\@undefined\def\qr@savematrix{\begingroup\let\do\@makeother\dospecials\catcode`\{=1\catcode`\}=2\relax \qr@savematrix@int}\def\qr@savematrix@int#1#2#3#4{\endgroup}\fi
\babel@aux{french}{}
\babel@aux{french}{}
\@writefile{toc}{\contentsline {chapter}{\numberline {4}Paris 2024}{1}{chapter.4}\protected@file@percent }
\@writefile{lof}{\addvspace {10\p@ }}
\@writefile{lot}{\addvspace {10\p@ }}
\savepicturepage{pgfid2}{1}
\pgfsyspdfmark {pgfid2}{4475230}{51754423}
\savepicturepage{pgfid3}{1}
\pgfsyspdfmark {pgfid3}{3729359}{49237106}
\savepicturepage{pgfid1}{1}
\pgfsyspdfmark {pgfid1}{4297332}{48425299}
\newlabel{LastPage}{{6}{5}{Paris 2024}{page.5}{}}
\gdef\lastpage@lastpage{5}
\gdef\lastpage@lastpageHy{5}
\gdef \@abspage@last{5}
