\relax 
\providecommand\babel@aux[2]{}
\@nameuse{bbl@beforestart}
\providecommand\hyper@newdestlabel[2]{}
\providecommand*\HyPL@Entry[1]{}
\HyPL@Entry{0<</S/D>>}
\providecommand \oddpage@label [2]{}
\ifx\qr@savematrix\@undefined\def\qr@savematrix{\begingroup\let\do\@makeother\dospecials\catcode`\{=1\catcode`\}=2\relax \qr@savematrix@int}\def\qr@savematrix@int#1#2#3#4{\endgroup}\fi
\babel@aux{french}{}
\babel@aux{french}{}
\newlabel{gmp@finallabel}{{1}{1}{}{gmp@count.1}{}}
\newlabel{LastPage}{{1}{1}{}{page.1}{}}
\gdef\lastpage@lastpage{1}
\gdef\lastpage@lastpageHy{1}
\gdef \@abspage@last{1}
