%% Do not edit, this file has been generated
%% automatically by "2024 intro stats".tex via gmp.sty

verbatimtex
%&latex
\documentclass[]{article}

\usepackage []{ProfCollege}
\usepackage [utf8]{inputenc}
\usepackage [T1]{fontenc}
\usepackage []{fourier}
\usepackage [french]{babel}
\usepackage []{pifont}

\begin{document}
etex;
prologues:=3;

prologues:=3; input PfCLaTeX; input PfCSvgnames; input PfCConstantes; input PfCGeometrie; input PfCAfficheur;
Longueur:=12cm; Hauteur:=8mm; Ecart:=2mm; ExposantDivMax:=2; ecarthachures=0.25; epaisseurhachures=1; boolean Hachures,Bicolore,Grille,AffichageDonnee,LegendeVide; Hachures=false; Bicolore=false; Grille=true; AffichageDonnee=false; LegendeVide=false; vardef CalculNombreDonneesEtDonneeMax(text t)= nbdon:=0;DonneeMax:=0;for p_=t: nbdon:=nbdon+1; if p_>DonneeMax: DonneeMax:=p_; fi; endfor; enddef; vardef ListeDonnees(text t)= n:=0; for p_=t: n:=n+1; Donnees[n]:=p_; endfor; enddef; vardef RecuperationCouleurs(text t)= color Col[]; n:=0; for p_=t: n:=n+1; Col[n]=p_; endfor; enddef; 
outputtemplate:= "%j.mps";
beginfig(1);
 vardef TraceDiag= if Grille: pair Zz[];Zz0=(0,-(nbdon-1)*(Hauteur+Ecart)-Ecart); Zz2=(0,(Hauteur+Ecart)); Zz1=((1/DonneeMax)*Longueur,-(nbdon-1)*(Hauteur+Ecart)-Ecart); Zz3=if ExposantDivMax=0 : (DonneeMax+1)[Zz0,Zz1] else: ((floor(DonneeMax*10+2))/10)[Zz0,Zz1];fi; if ExposantDivMax=0: for k=1 upto DonneeMax+1: trace (Zz0--Zz2) shifted (k*(Zz1-Zz0)) dashed evenly withcolor 0.5white; endfor; else: for k=1 upto (floor(DonneeMax*10+2)): trace (Zz0--Zz2) shifted ((k/10)*(Zz1-Zz0)) dashed evenly withcolor 0.5white; endfor; fi; if ExposantDivMax=0: for k=1 upto (DonneeMax+1): label.bot(LATEX("\num {"&decimal(k)&"}"),Zz0+k*(Zz1-Zz0)); endfor; else: if ExposantDivMax<5: for k=1 upto (floor(DonneeMax*10+2)): label.bot(LATEX("\num {\fpeval {"&decimal(k)&"*(10**"&decimal(ExposantDivMax-1)&")}}"),Zz0+(k/10)*(Zz1-Zz0)); endfor; else: dotlabel.bot(LATEX("\num {\fpeval {10**"&decimal(ExposantDivMax)&"}}"),Zz1); fi; fi; fi; for k=0 upto nbdon-1: path RectangleDonnee; RectangleDonnee=(unitsquare xscaled ((Donnees[k+1]/DonneeMax)*Longueur) yscaled Hauteur) shifted(0,-k*(Hauteur+Ecart)); if Hachures: fill RectangleDonnee withcolor white; trace Hachurage(RectangleDonnee,60 if (k mod 2)=0: +90 fi,ecarthachures,if (k mod 2)=0 : 0 else: 1 fi) withpen pencircle scaled epaisseurhachures; else: remplis RectangleDonnee withcolor if unknown Col[k+1]: if Bicolore:Col[(k mod 2)+1] else: white fi; else:if Bicolore:Col[(k mod 2)+1] else: Col[k+1] fi; fi; fi; trace RectangleDonnee; endfor; if Grille: drawarrow (0,-(nbdon-1)*(Hauteur+Ecart)-Ecart)--(0,(Hauteur+Ecart)) withpen pencircle scaled 1.5; drawarrow (0,-(nbdon-1)*(Hauteur+Ecart)-Ecart)--(Zz3+u*(0.25,0)) withpen pencircle scaled 1.5; fi; enddef; vardef AffichageNom(text t)= k:=0; for p_=t: label.lft(LATEX(p_),0.5[(0,0),(0,Hauteur)] shifted (0,-k*(Hauteur+Ecart))); k:=k+1; endfor; enddef; vardef AffichageDonnees(text t)= k:=0; for p_=t: label.rt(LATEX("\num {"&p_&"}"),0.5[(0,0),(0,Hauteur)] shifted (((Donnees[k+1]/DonneeMax)*Longueur),-k*(Hauteur+Ecart))); k:=k+1; endfor; enddef; CalculNombreDonneesEtDonneeMax(0.4,0.4,0.2,0.18,0.16,0.15,0.14,0.13,0.12,0.12,); ListeDonnees(0.4,0.4,0.2,0.18,0.16,0.15,0.14,0.13,0.12,0.12,); RecuperationCouleurs(Orange,Purple,red,Cornsilk,blue,Olive,Salmon,green,Turquoise,MistyRose,); TraceDiag; if LegendeVide=false: AffichageNom("E-U","Chine","Japon","Australie","France","Pays-Bas","G-B","Corée","Italie","Allemagne",); fi; if AffichageDonnee: AffichageDonnees("40","40","20","18","16","15","14","13","12","12",); fi; 
endfig;
end.
verbatimtex
\end{document}
etex
