\relax 
\providecommand\babel@aux[2]{}
\@nameuse{bbl@beforestart}
\providecommand\hyper@newdestlabel[2]{}
\providecommand\HyField@AuxAddToFields[1]{}
\providecommand\HyField@AuxAddToCoFields[2]{}
\providecommand \oddpage@label [2]{}
\ifx\qr@savematrix\@undefined\def\qr@savematrix{\begingroup\let\do\@makeother\dospecials\catcode`\{=1\catcode`\}=2\relax \qr@savematrix@int}\def\qr@savematrix@int#1#2#3#4{\endgroup}\fi
\babel@aux{french}{}
\babel@aux{french}{}
\@writefile{toc}{\contentsline {chapter}{\numberline {4}Organiser des données}{1}{chapter.4}\protected@file@percent }
\@writefile{lof}{\addvspace {10\p@ }}
\@writefile{lot}{\addvspace {10\p@ }}
\savepicturepage{pgfid2}{1}
\pgfsyspdfmark {pgfid2}{4475230}{51634821}
\savepicturepage{pgfid3}{1}
\pgfsyspdfmark {pgfid3}{3729359}{49117504}
\savepicturepage{pgfid1}{1}
\pgfsyspdfmark {pgfid1}{4297332}{48425299}
\@writefile{toc}{\contentsline {section}{\numberline {4.1}Introduction}{1}{section.4.1}\protected@file@percent }
\@writefile{toc}{\contentsline {section}{\numberline {4.2}Diagrammes}{1}{section.4.2}\protected@file@percent }
\@writefile{toc}{\contentsline {subsection}{\numberline {4.2.1}Diagramme en ligne brisée}{2}{subsection.4.2.1}\protected@file@percent }
\@writefile{toc}{\contentsline {subsection}{\numberline {4.2.2}Diagramme en barres (ou en bâtons)}{2}{subsection.4.2.2}\protected@file@percent }
\@writefile{toc}{\contentsline {subsection}{\numberline {4.2.3}Histogramme}{3}{subsection.4.2.3}\protected@file@percent }
\@writefile{toc}{\contentsline {subsection}{\numberline {4.2.4}Diagramme à secteurs circulaires}{3}{subsection.4.2.4}\protected@file@percent }
\@writefile{toc}{\contentsline {section}{\numberline {4.3}Exercices}{4}{section.4.3}\protected@file@percent }
\newlabel{LastPage}{{4.3}{3}{Exercices}{page.3}{}}
\gdef\lastpage@lastpage{3}
\gdef\lastpage@lastpageHy{3}
\gdef \@abspage@last{9}
