\BOOKMARK [0][-]{chapter.4}{\376\377\000O\000r\000g\000a\000n\000i\000s\000e\000r\000\040\000d\000e\000s\000\040\000d\000o\000n\000n\000\351\000e\000s}{}% 1
\BOOKMARK [1][-]{section.4.1}{\376\377\000I\000n\000t\000r\000o\000d\000u\000c\000t\000i\000o\000n}{chapter.4}% 2
\BOOKMARK [1][-]{section.4.2}{\376\377\000D\000i\000a\000g\000r\000a\000m\000m\000e\000s}{chapter.4}% 3
\BOOKMARK [2][-]{subsection.4.2.1}{\376\377\000D\000i\000a\000g\000r\000a\000m\000m\000e\000\040\000e\000n\000\040\000l\000i\000g\000n\000e\000\040\000b\000r\000i\000s\000\351\000e}{section.4.2}% 4
\BOOKMARK [2][-]{subsection.4.2.2}{\376\377\000D\000i\000a\000g\000r\000a\000m\000m\000e\000\040\000e\000n\000\040\000b\000a\000r\000r\000e\000s\000\040\000\050\000o\000u\000\040\000e\000n\000\040\000b\000\342\000t\000o\000n\000s\000\051}{section.4.2}% 5
\BOOKMARK [2][-]{subsection.4.2.3}{\376\377\000H\000i\000s\000t\000o\000g\000r\000a\000m\000m\000e}{section.4.2}% 6
\BOOKMARK [2][-]{subsection.4.2.4}{\376\377\000D\000i\000a\000g\000r\000a\000m\000m\000e\000\040\000\340\000\040\000s\000e\000c\000t\000e\000u\000r\000s\000\040\000c\000i\000r\000c\000u\000l\000a\000i\000r\000e\000s}{section.4.2}% 7
\BOOKMARK [1][-]{section.4.3}{\376\377\000E\000x\000e\000r\000c\000i\000c\000e\000s}{chapter.4}% 8
