\relax 
\providecommand\babel@aux[2]{}
\@nameuse{bbl@beforestart}
\providecommand\hyper@newdestlabel[2]{}
\providecommand\HyperFirstAtBeginDocument{\AtBeginDocument}
\HyperFirstAtBeginDocument{\ifx\hyper@anchor\@undefined
\global\let\oldnewlabel\newlabel
\gdef\newlabel#1#2{\newlabelxx{#1}#2}
\gdef\newlabelxx#1#2#3#4#5#6{\oldnewlabel{#1}{{#2}{#3}}}
\AtEndDocument{\ifx\hyper@anchor\@undefined
\let\newlabel\oldnewlabel
\fi}
\fi}
\global\let\hyper@last\relax 
\gdef\HyperFirstAtBeginDocument#1{#1}
\providecommand\HyField@AuxAddToFields[1]{}
\providecommand\HyField@AuxAddToCoFields[2]{}
\providecommand \oddpage@label [2]{}
\ifx\qr@savematrix\@undefined\def\qr@savematrix{\begingroup\let\do\@makeother\dospecials\catcode`\{=1\catcode`\}=2\relax \qr@savematrix@int}\def\qr@savematrix@int#1#2#3#4{\endgroup}\fi
\babel@aux{french}{}
\babel@aux{french}{}
\@writefile{toc}{\contentsline {chapter}{\numberline {1}Verbes de Consignes}{1}{chapter.1}\protected@file@percent }
\@writefile{lof}{\addvspace {10\p@ }}
\@writefile{lot}{\addvspace {10\p@ }}
\savepicturepage{pgfid2}{1}
\pgfsyspdfmark {pgfid2}{0}{51651631}
\savepicturepage{pgfid1}{1}
\pgfsyspdfmark {pgfid1}{3729359}{45148499}
\savepicturepage{pgfid8}{2}
\pgfsyspdfmark {pgfid8}{2330851}{37480064}
\savepicturepage{pgfid9}{2}
\pgfsyspdfmark {pgfid9}{14451269}{37480064}
\savepicturepage{pgfid10}{2}
\pgfsyspdfmark {pgfid10}{26571687}{37480064}
\savepicturepage{pgfid11}{2}
\pgfsyspdfmark {pgfid11}{2330851}{19765606}
\savepicturepage{pgfid12}{2}
\pgfsyspdfmark {pgfid12}{14451269}{19765606}
\savepicturepage{pgfid13}{2}
\pgfsyspdfmark {pgfid13}{26571687}{19765606}
\savepicturepage{pgfid14}{2}
\pgfsyspdfmark {pgfid14}{2330851}{2051148}
\savepicturepage{pgfid15}{2}
\pgfsyspdfmark {pgfid15}{14451269}{2051148}
\savepicturepage{pgfid16}{2}
\pgfsyspdfmark {pgfid16}{26571687}{2051148}
\savepicturepage{pgfid7}{2}
\pgfsyspdfmark {pgfid7}{3729359}{50865199}
\savepicturepage{pgfid18}{3}
\pgfsyspdfmark {pgfid18}{2330851}{37480064}
\savepicturepage{pgfid19}{3}
\pgfsyspdfmark {pgfid19}{14451269}{37480064}
\savepicturepage{pgfid20}{3}
\pgfsyspdfmark {pgfid20}{26571687}{37480064}
\savepicturepage{pgfid21}{3}
\pgfsyspdfmark {pgfid21}{2330851}{19765606}
\savepicturepage{pgfid22}{3}
\pgfsyspdfmark {pgfid22}{14451269}{19765606}
\savepicturepage{pgfid23}{3}
\pgfsyspdfmark {pgfid23}{26571687}{19765606}
\savepicturepage{pgfid24}{3}
\pgfsyspdfmark {pgfid24}{2330851}{2051148}
\savepicturepage{pgfid25}{3}
\pgfsyspdfmark {pgfid25}{14451269}{2051148}
\savepicturepage{pgfid26}{3}
\pgfsyspdfmark {pgfid26}{26571687}{2051148}
\savepicturepage{pgfid17}{3}
\pgfsyspdfmark {pgfid17}{3729359}{50865199}
\newlabel{LastPage}{{}{3}{}{page.3}{}}
\xdef\lastpage@lastpage{3}
\xdef\lastpage@lastpageHy{3}
\gdef \@abspage@last{3}
