\relax 
\providecommand\babel@aux[2]{}
\@nameuse{bbl@beforestart}
\providecommand\hyper@newdestlabel[2]{}
\providecommand\HyperFirstAtBeginDocument{\AtBeginDocument}
\HyperFirstAtBeginDocument{\ifx\hyper@anchor\@undefined
\global\let\oldnewlabel\newlabel
\gdef\newlabel#1#2{\newlabelxx{#1}#2}
\gdef\newlabelxx#1#2#3#4#5#6{\oldnewlabel{#1}{{#2}{#3}}}
\AtEndDocument{\ifx\hyper@anchor\@undefined
\let\newlabel\oldnewlabel
\fi}
\fi}
\global\let\hyper@last\relax 
\gdef\HyperFirstAtBeginDocument#1{#1}
\providecommand\HyField@AuxAddToFields[1]{}
\providecommand\HyField@AuxAddToCoFields[2]{}
\providecommand \oddpage@label [2]{}
\ifx\qr@savematrix\@undefined\def\qr@savematrix{\begingroup\let\do\@makeother\dospecials\catcode`\{=1\catcode`\}=2\relax \qr@savematrix@int}\def\qr@savematrix@int#1#2#3#4{\endgroup}\fi
\babel@aux{french}{}
\babel@aux{french}{}
\@writefile{toc}{\contentsline {chapter}{\numberline {5}Indicateurs statistiques}{1}{chapter.5}\protected@file@percent }
\@writefile{lof}{\addvspace {10\p@ }}
\@writefile{lot}{\addvspace {10\p@ }}
\savepicturepage{pgfid2}{1}
\pgfsyspdfmark {pgfid2}{0}{51651631}
\savepicturepage{pgfid1}{1}
\pgfsyspdfmark {pgfid1}{3729359}{45148499}
\@writefile{toc}{\contentsline {section}{\numberline {5.1}Indicateurs statistiques}{2}{section.5.1}\protected@file@percent }
\@writefile{toc}{\contentsline {subsection}{\numberline {5.1.1}Indicateurs de position}{2}{subsection.5.1.1}\protected@file@percent }
\@writefile{toc}{\contentsline {subsection}{\numberline {5.1.2}Diagramme en boite à moustache}{3}{subsection.5.1.2}\protected@file@percent }
\@writefile{toc}{\contentsline {subsection}{\numberline {5.1.3}Indicateurs de dispersion}{3}{subsection.5.1.3}\protected@file@percent }
\@writefile{toc}{\contentsline {section}{\numberline {5.2}Exercices}{4}{section.5.2}\protected@file@percent }
\newlabel{LastPage}{{}{5}{}{page.5}{}}
\xdef\lastpage@lastpage{5}
\xdef\lastpage@lastpageHy{5}
\gdef \@abspage@last{5}
