\BOOKMARK [0][-]{chapter.5}{\376\377\000I\000n\000d\000i\000c\000a\000t\000e\000u\000r\000s\000\040\000s\000t\000a\000t\000i\000s\000t\000i\000q\000u\000e\000s}{}% 1
\BOOKMARK [1][-]{section.5.1}{\376\377\000I\000n\000d\000i\000c\000a\000t\000e\000u\000r\000s\000\040\000s\000t\000a\000t\000i\000s\000t\000i\000q\000u\000e\000s}{chapter.5}% 2
\BOOKMARK [2][-]{subsection.5.1.1}{\376\377\000I\000n\000d\000i\000c\000a\000t\000e\000u\000r\000s\000\040\000d\000e\000\040\000p\000o\000s\000i\000t\000i\000o\000n}{section.5.1}% 3
\BOOKMARK [2][-]{subsection.5.1.2}{\376\377\000D\000i\000a\000g\000r\000a\000m\000m\000e\000\040\000e\000n\000\040\000b\000o\000i\000t\000e\000\040\000\340\000\040\000m\000o\000u\000s\000t\000a\000c\000h\000e}{section.5.1}% 4
\BOOKMARK [2][-]{subsection.5.1.3}{\376\377\000I\000n\000d\000i\000c\000a\000t\000e\000u\000r\000s\000\040\000d\000e\000\040\000d\000i\000s\000p\000e\000r\000s\000i\000o\000n}{section.5.1}% 5
\BOOKMARK [1][-]{section.5.2}{\376\377\000E\000x\000e\000r\000c\000i\000c\000e\000s}{chapter.5}% 6
