\BOOKMARK [0][-]{chapter.1}{\376\377\000S\000t\000a\000t\000i\000s\000t\000i\000q\000u\000e\000s\000\040\000d\000e\000s\000c\000r\000i\000p\000t\000i\000v\000e\000s}{}% 1
\BOOKMARK [0][-]{chapter.2}{\376\377\000I\000n\000d\000i\000c\000a\000t\000e\000u\000r\000s\000\040\000s\000t\000a\000t\000i\000s\000t\000i\000q\000u\000e\000s}{}% 2
\BOOKMARK [0][-]{chapter.3}{\376\377\000P\000r\000e\000m\000i\000e\000r\000\040\000d\000e\000g\000r\000\351}{}% 3
\BOOKMARK [0][-]{chapter.4}{\376\377\000G\000\351\000o\000m\000\351\000t\000r\000i\000e}{}% 4
\BOOKMARK [0][-]{chapter.5}{\376\377\000P\000r\000o\000b\000a\000b\000i\000l\000i\000t\000\351\000s}{}% 5
\BOOKMARK [0][-]{chapter.6}{\376\377\000F\000o\000n\000c\000t\000i\000o\000n\000s}{}% 6
\BOOKMARK [0][-]{chapter.7}{\376\377\000P\000y\000t\000h\000o\000n\000\040\000e\000t\000\040\000a\000l\000g\000o\000r\000i\000t\000h\000m\000i\000e}{}% 7
\BOOKMARK [0][-]{chapter.8}{\376\377\000O\000u\000t\000i\000l\000s\000\040\000e\000t\000\040\000i\000n\000f\000o\000r\000m\000a\000t\000i\000o\000n\000s}{}% 8
