%% Do not edit, this file has been generated
%% automatically by "livret seconde".tex via gmp.sty

verbatimtex
%&latex
\documentclass[]{article}

\usepackage []{ProfCollege}
\usepackage [utf8]{inputenc}
\usepackage [T1]{fontenc}
\usepackage []{fourier}
\usepackage [french]{babel}
\usepackage []{pifont}

\begin{document}
etex;
prologues:=3;

prologues:=3; input PfCLaTeX; input PfCSvgnames; input PfCConstantes; input PfCGeometrie; input PfCAfficheur;
u:=1cm;boolean Rectangle,Isocele; Rectangle=false;Isocele=false;Angle:=-10;
outputtemplate:= "%j.mps";
beginfig(3);
 pair A,B,C,O,I;A=u*(1,1); B-A=u*(4,0); if Rectangle: C=3/5[B,rotation(A,B,-90)]; else: C=(A--2[A,B rotatedabout(A,45)]) intersectionpoint (B--2[B,A rotatedabout(B,-60)]); fi; O=CentreCercleC(A,B,C); A:=rotation(A,O,Angle); B:=rotation(B,O,Angle); C:=rotation(C,O,Angle); I=CentreCercleI(A,B,C); path triangle; triangle=A{dir(angle(B-A)+5)}..B{dir(angle(B-A)+5)}--B{dir(angle(C-B)+5)}..C{dir(angle(C-B)+5)}--C{dir(angle(A-C)+5)}..A{dir(angle(A-C)+5)}--cycle; path cc; cc=fullcircle scaled 1u; picture MAngle; path cd; pair M[]; MAngle=image(if Isocele:if Rectangle: trace codeperp(A,B,C,5); cd=A--(A+B+C)/3; M1=cd intersectionpoint (cc shifted A); trace 9/10[A,M1]--11/10[A,M1]; cd:=C--(A+B+C)/3; M1:=cd intersectionpoint (cc shifted C); trace 9/10[C,M1]--11/10[C,M1]; else: cd=B--(A+B+C)/3; M1=cd intersectionpoint (cc shifted B); trace 9/10[B,M1]--11/10[B,M1]; cd:=C--(A+B+C)/3; M1:=cd intersectionpoint (cc shifted C); trace 9/10[C,M1]--11/10[C,M1]; fi; fi; if Rectangle: trace codeperp(A,B,C,5); else: draw (cc shifted B); fi; draw (cc shifted A); draw (cc shifted C); ); draw MAngle; clip currentpicture to triangle; draw A{dir(angle(B-A)+5)}..B{dir(angle(B-A)+5)}; draw B{dir(angle(C-B)+5)}..C{dir(angle(C-B)+5)}; draw C{dir(angle(A-C)+5)}..A{dir(angle(A-C)+5)}; label(btex P etex,1.2[O,A]); label(btex Q etex,1.2[O,B]); label(btex R etex,1.2[O,C]); if Isocele: marque_s:=marque_s/2; if Rectangle: draw Codelongueur(A,B,B,C,2); else: draw Codelongueur(A,B,A,C,2); fi; marque_s:=marque_s*2; fi; if Isocele: if Rectangle: label(btex ? etex,A+0.95u*unitvector(I-A)); else: if 60>40:label(btex $\ang {60}$ etex,A+0.95u*unitvector(I-A)); label(btex ? etex,B+0.95u*unitvector(I-B)); else: label(btex $\ang {40}$ etex,B+0.95u*unitvector(I-B)); label(btex ? etex,A+0.95u*unitvector(I-A)); fi; fi; else: if Rectangle: if 60>40: label(btex $\ang {60}$ etex,C+0.95u*unitvector(I-C)); else: label(btex $\ang {40}$ etex,C+0.95u*unitvector(I-C)); fi; else: label(btex $\ang {60}$ etex,B+0.95u*unitvector(I-B)); label(btex $\ang {40}$ etex,C+0.95u*unitvector(I-C)); fi; label(btex ? etex,A+0.95u*unitvector(I-A)); fi; 
endfig;
end.
verbatimtex
\end{document}
etex
