%% Do not edit, this file has been generated
%% automatically by "livret seconde".tex via gmp.sty

verbatimtex
%&latex
\documentclass[]{article}

\usepackage []{ProfCollege}
\usepackage [utf8]{inputenc}
\usepackage [T1]{fontenc}
\usepackage []{fourier}
\usepackage [french]{babel}
\usepackage []{pifont}

\begin{document}
etex;
prologues:=3;

prologues:=3; input PfCLaTeX; input PfCSvgnames; input PfCConstantes; input PfCGeometrie; input PfCAfficheur;
u:=10mm;decalage=5mm;
outputtemplate:= "%j.mps";
beginfig(5);
 pair A,B,C,O,D,E,F;O=u*(2.5,2.5); path cc; cc=(fullcircle scaled 4u) shifted O; A=point(0.8*length cc) of cc; B=A rotatedabout(O,-100); C=2[A,O]; A:=A rotatedabout(O,15); B:=B rotatedabout(O,15); C:=C rotatedabout(O,15); draw A{dir(angle(B-A)+5)}..B{dir(angle(B-A)+5)}; draw B{dir(angle(C-B)+5)}..C{dir(angle(C-B)+5)}; draw C{dir(angle(A-C)+5)}..A{dir(angle(A-C)+5)}; numeric decalage; decalage=3mm; label(LATEX("\num {4}"),O+decalage*(unitvector(O-B))); label(LATEX("\num {6}"),1/2[C,B]+decalage*(unitvector(1/2[C,B]-O))); label(LATEX("\num {8}"),1/2[A,B]+decalage*(unitvector(1/2[A,B]-O))); label(btex P etex,1.2[O,A]); label(btex Q etex,1.2[O,B]); label(btex F etex,1.2[O,C]); 
endfig;
end.
verbatimtex
\end{document}
etex
