\babel@toc {french}{}\relax 
\babel@toc {french}{}\relax 
\contentsline {chapter}{\numberline {1}Statistiques descriptives}{2}{chapter.1}%
\contentsline {chapter}{\numberline {2}Indicateurs statistiques}{5}{chapter.2}%
\contentsline {chapter}{\numberline {3}Premier degré}{6}{chapter.3}%
\contentsline {chapter}{\numberline {4}Géométrie}{8}{chapter.4}%
\contentsline {chapter}{\numberline {5}Probabilités}{10}{chapter.5}%
\contentsline {chapter}{\numberline {6}Fonctions}{12}{chapter.6}%
\contentsline {chapter}{\numberline {7}Python et algorithmie}{15}{chapter.7}%
\contentsline {chapter}{\numberline {8}Outils et informations}{17}{chapter.8}%
