\relax 
\providecommand\babel@aux[2]{}
\@nameuse{bbl@beforestart}
\providecommand\hyper@newdestlabel[2]{}
\providecommand\HyField@AuxAddToFields[1]{}
\providecommand\HyField@AuxAddToCoFields[2]{}
\providecommand \oddpage@label [2]{}
\ifx\qr@savematrix\@undefined\def\qr@savematrix{\begingroup\let\do\@makeother\dospecials\catcode`\{=1\catcode`\}=2\relax \qr@savematrix@int}\def\qr@savematrix@int#1#2#3#4{\endgroup}\fi
\babel@aux{french}{}
\babel@aux{french}{}
\ExplSyntaxOn \cs_if_free:NT \pgfsyspdfmark {\cs_set_eq:NN \pgfsyspdfmark \@gobblethree }\ExplSyntaxOff 
\ExplSyntaxOn 
\char_set_catcode_space:n {32}
\tl_gset:cn {c__nicematrix_1_tl}{\seq_gset_from_clist:Nn \g__nicematrix_size_seq {1,4,4,1,8,8}}
\ExplSyntaxOff 
\ExplSyntaxOn 
\char_set_catcode_space:n {32}
\tl_gset:cn {c__nicematrix_2_tl}{\seq_gset_from_clist:Nn \g__nicematrix_size_seq {1,3,3,1,7,7}}
\ExplSyntaxOff 
\@writefile{toc}{\contentsline {chapter}{\numberline {1}Statistiques descriptives}{2}{chapter.1}\protected@file@percent }
\@writefile{lof}{\addvspace {10\p@ }}
\@writefile{lot}{\addvspace {10\p@ }}
\pgfsyspdfmark {nm-1-position}{8391868}{27286491}
\pgfsyspdfmark {pgfid2}{8391868}{27286491}
\pgfsyspdfmark {pgfid3}{8391868}{27286491}
\pgfsyspdfmark {nm-1-row-1}{8391868}{30479178}
\pgfsyspdfmark {pgfid5}{8391868}{30492285}
\pgfsyspdfmark {pgfid6}{10066629}{29460098}
\pgfsyspdfmark {pgfid7}{11283293}{29460098}
\pgfsyspdfmark {pgfid8}{15500273}{29460098}
\pgfsyspdfmark {pgfid9}{18151383}{29460098}
\pgfsyspdfmark {pgfid10}{20802493}{29460098}
\pgfsyspdfmark {pgfid11}{23453603}{29460098}
\pgfsyspdfmark {pgfid12}{26104713}{29460098}
\pgfsyspdfmark {pgfid13}{28755823}{29460098}
\pgfsyspdfmark {pgfid14}{31406933}{29460098}
\pgfsyspdfmark {nm-1-row-2}{8391868}{29004619}
\pgfsyspdfmark {pgfid15}{8391868}{29017726}
\pgfsyspdfmark {pgfid16}{10065973}{27985539}
\pgfsyspdfmark {pgfid17}{11283293}{27985539}
\pgfsyspdfmark {pgfid18}{15500273}{27985539}
\pgfsyspdfmark {pgfid19}{18151383}{27985539}
\pgfsyspdfmark {pgfid20}{20802493}{27985539}
\pgfsyspdfmark {pgfid21}{23453603}{27985539}
\pgfsyspdfmark {pgfid22}{26104713}{27985539}
\pgfsyspdfmark {pgfid23}{28755823}{27985539}
\pgfsyspdfmark {pgfid24}{31406933}{27985539}
\pgfsyspdfmark {nm-1-row-3}{8391868}{27530060}
\pgfsyspdfmark {pgfid25}{8391868}{27543167}
\pgfsyspdfmark {pgfid26}{8785084}{26510980}
\pgfsyspdfmark {pgfid27}{11283293}{26510980}
\pgfsyspdfmark {pgfid28}{15500273}{26510980}
\pgfsyspdfmark {pgfid29}{18151383}{26510980}
\pgfsyspdfmark {pgfid30}{20802493}{26510980}
\pgfsyspdfmark {pgfid31}{23453603}{26510980}
\pgfsyspdfmark {pgfid32}{26104713}{26510980}
\pgfsyspdfmark {pgfid33}{28755823}{26510980}
\pgfsyspdfmark {pgfid34}{31406933}{26510980}
\pgfsyspdfmark {nm-1-row-4}{8391868}{26006355}
\pgfsyspdfmark {pgfid35}{8391868}{26019462}
\pgfsyspdfmark {pgfid36}{10165915}{24987275}
\pgfsyspdfmark {pgfid37}{11283293}{24987275}
\pgfsyspdfmark {pgfid38}{15500273}{24987275}
\pgfsyspdfmark {pgfid39}{18151383}{24987275}
\pgfsyspdfmark {pgfid40}{20802493}{24987275}
\pgfsyspdfmark {pgfid41}{23453603}{24987275}
\pgfsyspdfmark {pgfid42}{26104713}{24987275}
\pgfsyspdfmark {pgfid43}{28755823}{24987275}
\pgfsyspdfmark {pgfid44}{31406933}{24987275}
\pgfsyspdfmark {nm-1-row-5}{8391868}{24482650}
\pgfsyspdfmark {pgfid45}{8391868}{24495757}
\pgfsyspdfmark {nm-1-col-1}{8404975}{24495757}
\pgfsyspdfmark {pgfid46}{8391868}{24495757}
\pgfsyspdfmark {nm-1-col-2}{14161611}{24495757}
\pgfsyspdfmark {pgfid47}{14174718}{24495757}
\pgfsyspdfmark {nm-1-col-3}{16812721}{24495757}
\pgfsyspdfmark {pgfid48}{16825828}{24495757}
\pgfsyspdfmark {nm-1-col-4}{19463831}{24495757}
\pgfsyspdfmark {pgfid49}{19476938}{24495757}
\pgfsyspdfmark {nm-1-col-5}{22114941}{24495757}
\pgfsyspdfmark {pgfid50}{22128048}{24495757}
\pgfsyspdfmark {nm-1-col-6}{24766051}{24495757}
\pgfsyspdfmark {pgfid51}{24779158}{24495757}
\pgfsyspdfmark {nm-1-col-7}{27417161}{24495757}
\pgfsyspdfmark {pgfid52}{27430268}{24495757}
\pgfsyspdfmark {nm-1-col-8}{30068271}{24495757}
\pgfsyspdfmark {pgfid53}{30081378}{24495757}
\pgfsyspdfmark {nm-1-col-9}{32719381}{24495757}
\pgfsyspdfmark {pgfid54}{32732488}{24495757}
\pgfsyspdfmark {pgfid55}{32732488}{27286491}
\savepicturepage{pgfid57}{2}
\pgfsyspdfmark {pgfid57}{32732488}{27286491}
\pgfsyspdfmark {pgfid58}{32732488}{27286491}
\pgfsyspdfmark {pgfid59}{32732488}{27286491}
\pgfsyspdfmark {pgfid60}{32732488}{27286491}
\pgfsyspdfmark {pgfid61}{32732488}{27286491}
\pgfsyspdfmark {pgfid62}{32732488}{27286491}
\pgfsyspdfmark {pgfid63}{32732488}{27286491}
\pgfsyspdfmark {pgfid64}{32732488}{27286491}
\pgfsyspdfmark {pgfid65}{32732488}{27286491}
\pgfsyspdfmark {pgfid66}{32732488}{27286491}
\pgfsyspdfmark {pgfid67}{32732488}{27286491}
\pgfsyspdfmark {pgfid68}{32732488}{27286491}
\pgfsyspdfmark {pgfid69}{32732488}{27286491}
\pgfsyspdfmark {pgfid70}{32732488}{27286491}
\pgfsyspdfmark {pgfid71}{32732488}{27286491}
\pgfsyspdfmark {nm-2-position}{10682433}{18444228}
\pgfsyspdfmark {pgfid73}{10682433}{18444228}
\pgfsyspdfmark {pgfid74}{10682433}{18444228}
\pgfsyspdfmark {nm-2-row-1}{10682433}{20875063}
\pgfsyspdfmark {pgfid76}{10682433}{20888170}
\pgfsyspdfmark {pgfid77}{11392184}{19855983}
\pgfsyspdfmark {pgfid78}{12608848}{19855983}
\pgfsyspdfmark {pgfid79}{15860818}{19855983}
\pgfsyspdfmark {pgfid80}{18511928}{19855983}
\pgfsyspdfmark {pgfid81}{21163038}{19855983}
\pgfsyspdfmark {pgfid82}{23814148}{19855983}
\pgfsyspdfmark {pgfid83}{26465258}{19855983}
\pgfsyspdfmark {pgfid84}{29116368}{19855983}
\pgfsyspdfmark {nm-2-row-2}{10682433}{19400504}
\pgfsyspdfmark {pgfid85}{10682433}{19413611}
\pgfsyspdfmark {pgfid86}{11391528}{18381424}
\pgfsyspdfmark {pgfid87}{12608848}{18381424}
\pgfsyspdfmark {pgfid88}{15860818}{18381424}
\pgfsyspdfmark {pgfid89}{18511928}{18381424}
\pgfsyspdfmark {pgfid90}{21163038}{18381424}
\pgfsyspdfmark {pgfid91}{23814148}{18381424}
\pgfsyspdfmark {pgfid92}{26465258}{18381424}
\pgfsyspdfmark {pgfid93}{29116368}{18381424}
\pgfsyspdfmark {nm-2-row-3}{10682433}{17925945}
\pgfsyspdfmark {pgfid94}{10682433}{17939052}
\pgfsyspdfmark {pgfid95}{11075649}{16906865}
\pgfsyspdfmark {pgfid96}{12608848}{16906865}
\pgfsyspdfmark {pgfid97}{15860818}{16906865}
\pgfsyspdfmark {pgfid98}{18511928}{16906865}
\pgfsyspdfmark {pgfid99}{21163038}{16906865}
\pgfsyspdfmark {pgfid100}{23814148}{16906865}
\pgfsyspdfmark {pgfid101}{26465258}{16906865}
\pgfsyspdfmark {pgfid102}{29116368}{16906865}
\pgfsyspdfmark {nm-2-row-4}{10682433}{16402240}
\pgfsyspdfmark {pgfid103}{10682433}{16415347}
\pgfsyspdfmark {nm-2-col-1}{10695540}{16415347}
\pgfsyspdfmark {pgfid104}{10682433}{16415347}
\pgfsyspdfmark {nm-2-col-2}{14522156}{16415347}
\pgfsyspdfmark {pgfid105}{14535263}{16415347}
\pgfsyspdfmark {nm-2-col-3}{17173266}{16415347}
\pgfsyspdfmark {pgfid106}{17186373}{16415347}
\pgfsyspdfmark {nm-2-col-4}{19824376}{16415347}
\pgfsyspdfmark {pgfid107}{19837483}{16415347}
\pgfsyspdfmark {nm-2-col-5}{22475486}{16415347}
\pgfsyspdfmark {pgfid108}{22488593}{16415347}
\pgfsyspdfmark {nm-2-col-6}{25126596}{16415347}
\pgfsyspdfmark {pgfid109}{25139703}{16415347}
\pgfsyspdfmark {nm-2-col-7}{27777706}{16415347}
\pgfsyspdfmark {pgfid110}{27790813}{16415347}
\pgfsyspdfmark {nm-2-col-8}{30428816}{16415347}
\pgfsyspdfmark {pgfid111}{30441923}{16415347}
\pgfsyspdfmark {pgfid112}{30441923}{18444228}
\savepicturepage{pgfid114}{2}
\pgfsyspdfmark {pgfid114}{30441923}{18444228}
\pgfsyspdfmark {pgfid115}{30441923}{18444228}
\pgfsyspdfmark {pgfid116}{30441923}{18444228}
\pgfsyspdfmark {pgfid117}{30441923}{18444228}
\pgfsyspdfmark {pgfid118}{30441923}{18444228}
\pgfsyspdfmark {pgfid119}{30441923}{18444228}
\pgfsyspdfmark {pgfid120}{30441923}{18444228}
\pgfsyspdfmark {pgfid121}{30441923}{18444228}
\pgfsyspdfmark {pgfid122}{30441923}{18444228}
\pgfsyspdfmark {pgfid123}{30441923}{18444228}
\pgfsyspdfmark {pgfid124}{30441923}{18444228}
\pgfsyspdfmark {pgfid125}{30441923}{18444228}
\pgfsyspdfmark {pgfid126}{30441923}{18444228}
\ExplSyntaxOn 
\char_set_catcode_space:n {32}
\tl_gset:cn {c__nicematrix_3_tl}{\seq_gset_from_clist:Nn \g__nicematrix_size_seq {1,3,3,1,5,5}}
\ExplSyntaxOff 
\pgfsyspdfmark {nm-3-position}{11468863}{35334086}
\pgfsyspdfmark {pgfid129}{11468863}{35334086}
\pgfsyspdfmark {pgfid130}{11468863}{35334086}
\pgfsyspdfmark {nm-3-row-1}{11468863}{37003069}
\pgfsyspdfmark {pgfid132}{11468863}{37016176}
\pgfsyspdfmark {pgfid133}{12178614}{36328051}
\pgfsyspdfmark {pgfid134}{13395278}{36328051}
\pgfsyspdfmark {pgfid135}{17113418}{36328051}
\pgfsyspdfmark {pgfid136}{20696868}{36328051}
\pgfsyspdfmark {pgfid137}{24280318}{36328051}
\pgfsyspdfmark {pgfid138}{27863768}{36328051}
\pgfsyspdfmark {nm-3-row-2}{11468863}{36020029}
\pgfsyspdfmark {pgfid139}{11468863}{36033136}
\pgfsyspdfmark {pgfid140}{12177958}{35345011}
\pgfsyspdfmark {pgfid141}{13395278}{35345011}
\pgfsyspdfmark {pgfid142}{17113418}{35345011}
\pgfsyspdfmark {pgfid143}{20696868}{35345011}
\pgfsyspdfmark {pgfid144}{24280318}{35345011}
\pgfsyspdfmark {pgfid145}{27863768}{35345011}
\pgfsyspdfmark {nm-3-row-3}{11468863}{35036989}
\pgfsyspdfmark {pgfid146}{11468863}{35050096}
\pgfsyspdfmark {pgfid147}{11862079}{34361971}
\pgfsyspdfmark {pgfid148}{13395278}{34361971}
\pgfsyspdfmark {pgfid149}{17113418}{34361971}
\pgfsyspdfmark {pgfid150}{20696868}{34361971}
\pgfsyspdfmark {pgfid151}{24280318}{34361971}
\pgfsyspdfmark {pgfid152}{27863768}{34361971}
\pgfsyspdfmark {nm-3-row-4}{11468863}{34053949}
\pgfsyspdfmark {pgfid153}{11468863}{34067056}
\pgfsyspdfmark {nm-3-col-1}{11481970}{34067056}
\pgfsyspdfmark {pgfid154}{11468863}{34067056}
\pgfsyspdfmark {nm-3-col-2}{15308586}{34067056}
\pgfsyspdfmark {pgfid155}{15321693}{34067056}
\pgfsyspdfmark {nm-3-col-3}{18892036}{34067056}
\pgfsyspdfmark {pgfid156}{18905143}{34067056}
\pgfsyspdfmark {nm-3-col-4}{22475486}{34067056}
\pgfsyspdfmark {pgfid157}{22488593}{34067056}
\pgfsyspdfmark {nm-3-col-5}{26058936}{34067056}
\pgfsyspdfmark {pgfid158}{26072043}{34067056}
\pgfsyspdfmark {nm-3-col-6}{29642386}{34067056}
\pgfsyspdfmark {pgfid159}{29655493}{34067056}
\pgfsyspdfmark {pgfid160}{29655493}{35334086}
\savepicturepage{pgfid162}{3}
\pgfsyspdfmark {pgfid162}{29655493}{35334086}
\pgfsyspdfmark {pgfid163}{29655493}{35334086}
\pgfsyspdfmark {pgfid164}{29655493}{35334086}
\pgfsyspdfmark {pgfid165}{29655493}{35334086}
\pgfsyspdfmark {pgfid166}{29655493}{35334086}
\pgfsyspdfmark {pgfid167}{29655493}{35334086}
\pgfsyspdfmark {pgfid168}{29655493}{35334086}
\pgfsyspdfmark {pgfid169}{29655493}{35334086}
\pgfsyspdfmark {pgfid170}{29655493}{35334086}
\pgfsyspdfmark {pgfid171}{29655493}{35334086}
\pgfsyspdfmark {pgfid172}{29655493}{35334086}
\ExplSyntaxOn 
\char_set_catcode_space:n {32}
\tl_gset:cn {c__nicematrix_4_tl}{\seq_gset_from_clist:Nn \g__nicematrix_size_seq {1,2,2,1,11,11}}
\ExplSyntaxOff 
\ExplSyntaxOn 
\char_set_catcode_space:n {32}
\tl_gset:cn {c__nicematrix_5_tl}{\seq_gset_from_clist:Nn \g__nicematrix_size_seq {1,2,2,1,13,13}}
\ExplSyntaxOff 
\ExplSyntaxOn 
\char_set_catcode_space:n {32}
\tl_gset:cn {c__nicematrix_6_tl}{\seq_gset_from_clist:Nn \g__nicematrix_size_seq {1,2,2,1,13,13}}
\ExplSyntaxOff 
\@writefile{toc}{\contentsline {chapter}{\numberline {2}Indicateurs statistiques}{5}{chapter.2}\protected@file@percent }
\@writefile{lof}{\addvspace {10\p@ }}
\@writefile{lot}{\addvspace {10\p@ }}
\pgfsyspdfmark {nm-4-position}{5695439}{29916499}
\pgfsyspdfmark {pgfid175}{5695439}{29916499}
\pgfsyspdfmark {pgfid176}{5695439}{29916499}
\pgfsyspdfmark {nm-4-row-1}{5695439}{31093962}
\pgfsyspdfmark {pgfid178}{5695439}{31107069}
\pgfsyspdfmark {pgfid179}{6089311}{30418944}
\pgfsyspdfmark {pgfid180}{7305975}{30418944}
\pgfsyspdfmark {pgfid181}{10242066}{30418944}
\pgfsyspdfmark {pgfid182}{12893176}{30418944}
\pgfsyspdfmark {pgfid183}{15544286}{30418944}
\pgfsyspdfmark {pgfid184}{18195396}{30418944}
\pgfsyspdfmark {pgfid185}{20846506}{30418944}
\pgfsyspdfmark {pgfid186}{23497616}{30418944}
\pgfsyspdfmark {pgfid187}{26148726}{30418944}
\pgfsyspdfmark {pgfid188}{28799836}{30418944}
\pgfsyspdfmark {pgfid189}{31450946}{30418944}
\pgfsyspdfmark {pgfid190}{34102056}{30418944}
\pgfsyspdfmark {nm-4-row-2}{5695439}{30110922}
\pgfsyspdfmark {pgfid191}{5695439}{30124029}
\pgfsyspdfmark {pgfid192}{6088655}{29435904}
\pgfsyspdfmark {pgfid193}{7305975}{29435904}
\pgfsyspdfmark {pgfid194}{10242066}{29435904}
\pgfsyspdfmark {pgfid195}{12893176}{29435904}
\pgfsyspdfmark {pgfid196}{15544286}{29435904}
\pgfsyspdfmark {pgfid197}{18195396}{29435904}
\pgfsyspdfmark {pgfid198}{20846506}{29435904}
\pgfsyspdfmark {pgfid199}{23497616}{29435904}
\pgfsyspdfmark {pgfid200}{26148726}{29435904}
\pgfsyspdfmark {pgfid201}{28799836}{29435904}
\pgfsyspdfmark {pgfid202}{31450946}{29435904}
\pgfsyspdfmark {pgfid203}{34102056}{29435904}
\pgfsyspdfmark {nm-4-row-3}{5695439}{29127882}
\pgfsyspdfmark {pgfid204}{5695439}{29140989}
\pgfsyspdfmark {nm-4-col-1}{5708546}{29140989}
\pgfsyspdfmark {pgfid205}{5695439}{29140989}
\pgfsyspdfmark {nm-4-col-2}{8903404}{29140989}
\pgfsyspdfmark {pgfid206}{8916511}{29140989}
\pgfsyspdfmark {nm-4-col-3}{11554514}{29140989}
\pgfsyspdfmark {pgfid207}{11567621}{29140989}
\pgfsyspdfmark {nm-4-col-4}{14205624}{29140989}
\pgfsyspdfmark {pgfid208}{14218731}{29140989}
\pgfsyspdfmark {nm-4-col-5}{16856734}{29140989}
\pgfsyspdfmark {pgfid209}{16869841}{29140989}
\pgfsyspdfmark {nm-4-col-6}{19507844}{29140989}
\pgfsyspdfmark {pgfid210}{19520951}{29140989}
\pgfsyspdfmark {nm-4-col-7}{22158954}{29140989}
\pgfsyspdfmark {pgfid211}{22172061}{29140989}
\pgfsyspdfmark {nm-4-col-8}{24810064}{29140989}
\pgfsyspdfmark {pgfid212}{24823171}{29140989}
\pgfsyspdfmark {nm-4-col-9}{27461174}{29140989}
\pgfsyspdfmark {pgfid213}{27474281}{29140989}
\pgfsyspdfmark {nm-4-col-10}{30112284}{29140989}
\pgfsyspdfmark {pgfid214}{30125391}{29140989}
\pgfsyspdfmark {nm-4-col-11}{32763394}{29140989}
\pgfsyspdfmark {pgfid215}{32776501}{29140989}
\pgfsyspdfmark {nm-4-col-12}{35414504}{29140989}
\pgfsyspdfmark {pgfid216}{35427611}{29140989}
\pgfsyspdfmark {pgfid217}{35427611}{29916499}
\savepicturepage{pgfid219}{5}
\pgfsyspdfmark {pgfid219}{35427611}{29916499}
\pgfsyspdfmark {pgfid220}{35427611}{29916499}
\pgfsyspdfmark {pgfid221}{35427611}{29916499}
\pgfsyspdfmark {pgfid222}{35427611}{29916499}
\pgfsyspdfmark {pgfid223}{35427611}{29916499}
\pgfsyspdfmark {pgfid224}{35427611}{29916499}
\pgfsyspdfmark {pgfid225}{35427611}{29916499}
\pgfsyspdfmark {pgfid226}{35427611}{29916499}
\pgfsyspdfmark {pgfid227}{35427611}{29916499}
\pgfsyspdfmark {pgfid228}{35427611}{29916499}
\pgfsyspdfmark {pgfid229}{35427611}{29916499}
\pgfsyspdfmark {pgfid230}{35427611}{29916499}
\pgfsyspdfmark {pgfid231}{35427611}{29916499}
\pgfsyspdfmark {pgfid232}{35427611}{29916499}
\pgfsyspdfmark {pgfid233}{35427611}{29916499}
\pgfsyspdfmark {pgfid234}{35427611}{29916499}
\pgfsyspdfmark {nm-5-position}{5695439}{14206437}
\pgfsyspdfmark {pgfid236}{5695439}{14206437}
\pgfsyspdfmark {pgfid237}{5695439}{14206437}
\pgfsyspdfmark {nm-5-row-1}{5695439}{15383900}
\pgfsyspdfmark {pgfid239}{5695439}{15397007}
\pgfsyspdfmark {pgfid240}{6088655}{14708882}
\pgfsyspdfmark {pgfid241}{8556715}{14708882}
\pgfsyspdfmark {pgfid242}{12510461}{14708882}
\pgfsyspdfmark {pgfid243}{14695401}{14708882}
\pgfsyspdfmark {pgfid244}{16880341}{14708882}
\pgfsyspdfmark {pgfid245}{19065281}{14708882}
\pgfsyspdfmark {pgfid246}{21250221}{14708882}
\pgfsyspdfmark {pgfid247}{23435161}{14708882}
\pgfsyspdfmark {pgfid248}{25620101}{14708882}
\pgfsyspdfmark {pgfid249}{27805041}{14708882}
\pgfsyspdfmark {pgfid250}{29989981}{14708882}
\pgfsyspdfmark {pgfid251}{32174921}{14708882}
\pgfsyspdfmark {pgfid252}{34359861}{14708882}
\pgfsyspdfmark {pgfid253}{36544801}{14708882}
\pgfsyspdfmark {nm-5-row-2}{5695439}{14400860}
\pgfsyspdfmark {pgfid254}{5695439}{14413967}
\pgfsyspdfmark {pgfid255}{7339395}{13725842}
\pgfsyspdfmark {pgfid256}{8556715}{13725842}
\pgfsyspdfmark {pgfid257}{12510461}{13725842}
\pgfsyspdfmark {pgfid258}{14695401}{13725842}
\pgfsyspdfmark {pgfid259}{16880341}{13725842}
\pgfsyspdfmark {pgfid260}{19065281}{13725842}
\pgfsyspdfmark {pgfid261}{21250221}{13725842}
\pgfsyspdfmark {pgfid262}{23435161}{13725842}
\pgfsyspdfmark {pgfid263}{25620101}{13725842}
\pgfsyspdfmark {pgfid264}{27805041}{13725842}
\pgfsyspdfmark {pgfid265}{29989981}{13725842}
\pgfsyspdfmark {pgfid266}{32174921}{13725842}
\pgfsyspdfmark {pgfid267}{34359861}{13725842}
\pgfsyspdfmark {pgfid268}{36544801}{13725842}
\pgfsyspdfmark {nm-5-row-3}{5695439}{13417820}
\pgfsyspdfmark {pgfid269}{5695439}{13430927}
\pgfsyspdfmark {nm-5-col-1}{5708546}{13430927}
\pgfsyspdfmark {pgfid270}{5695439}{13430927}
\pgfsyspdfmark {nm-5-col-2}{11404884}{13430927}
\pgfsyspdfmark {pgfid271}{11417991}{13430927}
\pgfsyspdfmark {nm-5-col-3}{13589824}{13430927}
\pgfsyspdfmark {pgfid272}{13602931}{13430927}
\pgfsyspdfmark {nm-5-col-4}{15774764}{13430927}
\pgfsyspdfmark {pgfid273}{15787871}{13430927}
\pgfsyspdfmark {nm-5-col-5}{17959704}{13430927}
\pgfsyspdfmark {pgfid274}{17972811}{13430927}
\pgfsyspdfmark {nm-5-col-6}{20144644}{13430927}
\pgfsyspdfmark {pgfid275}{20157751}{13430927}
\pgfsyspdfmark {nm-5-col-7}{22329584}{13430927}
\pgfsyspdfmark {pgfid276}{22342691}{13430927}
\pgfsyspdfmark {nm-5-col-8}{24514524}{13430927}
\pgfsyspdfmark {pgfid277}{24527631}{13430927}
\pgfsyspdfmark {nm-5-col-9}{26699464}{13430927}
\pgfsyspdfmark {pgfid278}{26712571}{13430927}
\pgfsyspdfmark {nm-5-col-10}{28884404}{13430927}
\pgfsyspdfmark {pgfid279}{28897511}{13430927}
\pgfsyspdfmark {nm-5-col-11}{31069344}{13430927}
\pgfsyspdfmark {pgfid280}{31082451}{13430927}
\pgfsyspdfmark {nm-5-col-12}{33254284}{13430927}
\pgfsyspdfmark {pgfid281}{33267391}{13430927}
\pgfsyspdfmark {nm-5-col-13}{35439224}{13430927}
\pgfsyspdfmark {pgfid282}{35452331}{13430927}
\pgfsyspdfmark {nm-5-col-14}{37624164}{13430927}
\pgfsyspdfmark {pgfid283}{37637271}{13430927}
\pgfsyspdfmark {pgfid284}{37637271}{14206437}
\savepicturepage{pgfid286}{5}
\pgfsyspdfmark {pgfid286}{37637271}{14206437}
\pgfsyspdfmark {pgfid287}{37637271}{14206437}
\pgfsyspdfmark {pgfid288}{37637271}{14206437}
\pgfsyspdfmark {pgfid289}{37637271}{14206437}
\pgfsyspdfmark {pgfid290}{37637271}{14206437}
\pgfsyspdfmark {pgfid291}{37637271}{14206437}
\pgfsyspdfmark {pgfid292}{37637271}{14206437}
\pgfsyspdfmark {pgfid293}{37637271}{14206437}
\pgfsyspdfmark {pgfid294}{37637271}{14206437}
\pgfsyspdfmark {pgfid295}{37637271}{14206437}
\pgfsyspdfmark {pgfid296}{37637271}{14206437}
\pgfsyspdfmark {pgfid297}{37637271}{14206437}
\pgfsyspdfmark {pgfid298}{37637271}{14206437}
\pgfsyspdfmark {pgfid299}{37637271}{14206437}
\pgfsyspdfmark {pgfid300}{37637271}{14206437}
\pgfsyspdfmark {pgfid301}{37637271}{14206437}
\pgfsyspdfmark {pgfid302}{37637271}{14206437}
\pgfsyspdfmark {pgfid303}{37637271}{14206437}
\pgfsyspdfmark {nm-6-position}{5695439}{11445815}
\pgfsyspdfmark {pgfid305}{5695439}{11445815}
\pgfsyspdfmark {pgfid306}{5695439}{11445815}
\pgfsyspdfmark {nm-6-row-1}{5695439}{12623278}
\pgfsyspdfmark {pgfid308}{5695439}{12636385}
\pgfsyspdfmark {pgfid309}{6088655}{11948260}
\pgfsyspdfmark {pgfid310}{8561631}{11948260}
\pgfsyspdfmark {pgfid311}{12520293}{11948260}
\pgfsyspdfmark {pgfid312}{14705233}{11948260}
\pgfsyspdfmark {pgfid313}{16890173}{11948260}
\pgfsyspdfmark {pgfid314}{19075113}{11948260}
\pgfsyspdfmark {pgfid315}{21260053}{11948260}
\pgfsyspdfmark {pgfid316}{23444993}{11948260}
\pgfsyspdfmark {pgfid317}{25629933}{11948260}
\pgfsyspdfmark {pgfid318}{27814873}{11948260}
\pgfsyspdfmark {pgfid319}{29999813}{11948260}
\pgfsyspdfmark {pgfid320}{32184753}{11948260}
\pgfsyspdfmark {pgfid321}{34369693}{11948260}
\pgfsyspdfmark {pgfid322}{36554633}{11948260}
\pgfsyspdfmark {nm-6-row-2}{5695439}{11640238}
\pgfsyspdfmark {pgfid323}{5695439}{11653345}
\pgfsyspdfmark {pgfid324}{7344311}{10965220}
\pgfsyspdfmark {pgfid325}{8561631}{10965220}
\pgfsyspdfmark {pgfid326}{12520293}{10965220}
\pgfsyspdfmark {pgfid327}{14705233}{10965220}
\pgfsyspdfmark {pgfid328}{16890173}{10965220}
\pgfsyspdfmark {pgfid329}{19075113}{10965220}
\pgfsyspdfmark {pgfid330}{21260053}{10965220}
\pgfsyspdfmark {pgfid331}{23444993}{10965220}
\pgfsyspdfmark {pgfid332}{25629933}{10965220}
\pgfsyspdfmark {pgfid333}{27814873}{10965220}
\pgfsyspdfmark {pgfid334}{29999813}{10965220}
\pgfsyspdfmark {pgfid335}{32184753}{10965220}
\pgfsyspdfmark {pgfid336}{34369693}{10965220}
\pgfsyspdfmark {pgfid337}{36554633}{10965220}
\pgfsyspdfmark {nm-6-row-3}{5695439}{10657198}
\pgfsyspdfmark {pgfid338}{5695439}{10670305}
\pgfsyspdfmark {nm-6-col-1}{5708546}{10670305}
\pgfsyspdfmark {pgfid339}{5695439}{10670305}
\pgfsyspdfmark {nm-6-col-2}{11414716}{10670305}
\pgfsyspdfmark {pgfid340}{11427823}{10670305}
\pgfsyspdfmark {nm-6-col-3}{13599656}{10670305}
\pgfsyspdfmark {pgfid341}{13612763}{10670305}
\pgfsyspdfmark {nm-6-col-4}{15784596}{10670305}
\pgfsyspdfmark {pgfid342}{15797703}{10670305}
\pgfsyspdfmark {nm-6-col-5}{17969536}{10670305}
\pgfsyspdfmark {pgfid343}{17982643}{10670305}
\pgfsyspdfmark {nm-6-col-6}{20154476}{10670305}
\pgfsyspdfmark {pgfid344}{20167583}{10670305}
\pgfsyspdfmark {nm-6-col-7}{22339416}{10670305}
\pgfsyspdfmark {pgfid345}{22352523}{10670305}
\pgfsyspdfmark {nm-6-col-8}{24524356}{10670305}
\pgfsyspdfmark {pgfid346}{24537463}{10670305}
\pgfsyspdfmark {nm-6-col-9}{26709296}{10670305}
\pgfsyspdfmark {pgfid347}{26722403}{10670305}
\pgfsyspdfmark {nm-6-col-10}{28894236}{10670305}
\pgfsyspdfmark {pgfid348}{28907343}{10670305}
\pgfsyspdfmark {nm-6-col-11}{31079176}{10670305}
\pgfsyspdfmark {pgfid349}{31092283}{10670305}
\pgfsyspdfmark {nm-6-col-12}{33264116}{10670305}
\pgfsyspdfmark {pgfid350}{33277223}{10670305}
\pgfsyspdfmark {nm-6-col-13}{35449056}{10670305}
\pgfsyspdfmark {pgfid351}{35462163}{10670305}
\pgfsyspdfmark {nm-6-col-14}{37633996}{10670305}
\pgfsyspdfmark {pgfid352}{37647103}{10670305}
\pgfsyspdfmark {pgfid353}{37647103}{11445815}
\savepicturepage{pgfid355}{5}
\pgfsyspdfmark {pgfid355}{37647103}{11445815}
\pgfsyspdfmark {pgfid356}{37647103}{11445815}
\pgfsyspdfmark {pgfid357}{37647103}{11445815}
\pgfsyspdfmark {pgfid358}{37647103}{11445815}
\pgfsyspdfmark {pgfid359}{37647103}{11445815}
\pgfsyspdfmark {pgfid360}{37647103}{11445815}
\pgfsyspdfmark {pgfid361}{37647103}{11445815}
\pgfsyspdfmark {pgfid362}{37647103}{11445815}
\pgfsyspdfmark {pgfid363}{37647103}{11445815}
\pgfsyspdfmark {pgfid364}{37647103}{11445815}
\pgfsyspdfmark {pgfid365}{37647103}{11445815}
\pgfsyspdfmark {pgfid366}{37647103}{11445815}
\pgfsyspdfmark {pgfid367}{37647103}{11445815}
\pgfsyspdfmark {pgfid368}{37647103}{11445815}
\pgfsyspdfmark {pgfid369}{37647103}{11445815}
\pgfsyspdfmark {pgfid370}{37647103}{11445815}
\pgfsyspdfmark {pgfid371}{37647103}{11445815}
\pgfsyspdfmark {pgfid372}{37647103}{11445815}
\@writefile{toc}{\contentsline {chapter}{\numberline {3}Premier degré}{6}{chapter.3}\protected@file@percent }
\@writefile{lof}{\addvspace {10\p@ }}
\@writefile{lot}{\addvspace {10\p@ }}
\savepointas{A-0}{pgfid379}{0pt}{0pt}
\savepicturepage{pgfid379}{6}
\pgfsyspdfmark {pgfid379}{17079044}{14860532}
\savepointas{E-0}{pgfid380}{0pt}{0pt}
\savepicturepage{pgfid380}{6}
\pgfsyspdfmark {pgfid380}{22079231}{14860532}
\savepointas{B-0}{pgfid381}{0pt}{0pt}
\savepicturepage{pgfid381}{6}
\pgfsyspdfmark {pgfid381}{17464064}{13680884}
\savepointas{F-0}{pgfid382}{0pt}{0pt}
\savepicturepage{pgfid382}{6}
\pgfsyspdfmark {pgfid382}{20680953}{13680884}
\savepointas{C-0}{pgfid383}{0pt}{0pt}
\savepicturepage{pgfid383}{6}
\pgfsyspdfmark {pgfid383}{18810275}{12501236}
\savepointas{G-0}{pgfid384}{0pt}{0pt}
\savepicturepage{pgfid384}{6}
\pgfsyspdfmark {pgfid384}{21292624}{12501236}
\@writefile{toc}{\contentsline {chapter}{\numberline {4}Géométrie}{8}{chapter.4}\protected@file@percent }
\@writefile{lof}{\addvspace {10\p@ }}
\@writefile{lot}{\addvspace {10\p@ }}
\@writefile{toc}{\contentsline {chapter}{\numberline {5}Probabilités}{10}{chapter.5}\protected@file@percent }
\@writefile{lof}{\addvspace {10\p@ }}
\@writefile{lot}{\addvspace {10\p@ }}
\@writefile{toc}{\contentsline {chapter}{\numberline {6}Fonctions}{12}{chapter.6}\protected@file@percent }
\@writefile{lof}{\addvspace {10\p@ }}
\@writefile{lot}{\addvspace {10\p@ }}
\@writefile{toc}{\contentsline {chapter}{\numberline {7}Python et algorithmie}{15}{chapter.7}\protected@file@percent }
\@writefile{lof}{\addvspace {10\p@ }}
\@writefile{lot}{\addvspace {10\p@ }}
\@writefile{lol}{\contentsline {lstlisting}{scripts/boucle1.py}{15}{lstlisting.7.-1}\protected@file@percent }
\@writefile{lol}{\contentsline {lstlisting}{scripts/script1.py}{15}{lstlisting.7.-2}\protected@file@percent }
\@writefile{lol}{\contentsline {lstlisting}{scripts/script2.py}{15}{lstlisting.7.-3}\protected@file@percent }
\@writefile{lol}{\contentsline {lstlisting}{scripts/script3.py}{15}{lstlisting.7.-4}\protected@file@percent }
\@writefile{lol}{\contentsline {lstlisting}{scripts/des.py}{16}{lstlisting.7.-5}\protected@file@percent }
\@writefile{lol}{\contentsline {lstlisting}{scripts/des2.py}{16}{lstlisting.7.-6}\protected@file@percent }
\@writefile{toc}{\contentsline {chapter}{\numberline {8}Outils et informations}{17}{chapter.8}\protected@file@percent }
\@writefile{lof}{\addvspace {10\p@ }}
\@writefile{lot}{\addvspace {10\p@ }}
\newlabel{LastPage}{{8}{17}{Outils et informations}{page.17}{}}
\gdef\lastpage@lastpage{17}
\gdef\lastpage@lastpageHy{17}
\gdef \@abspage@last{17}
