\relax 
\providecommand\babel@aux[2]{}
\@nameuse{bbl@beforestart}
\providecommand\hyper@newdestlabel[2]{}
\providecommand\HyperFirstAtBeginDocument{\AtBeginDocument}
\HyperFirstAtBeginDocument{\ifx\hyper@anchor\@undefined
\global\let\oldnewlabel\newlabel
\gdef\newlabel#1#2{\newlabelxx{#1}#2}
\gdef\newlabelxx#1#2#3#4#5#6{\oldnewlabel{#1}{{#2}{#3}}}
\AtEndDocument{\ifx\hyper@anchor\@undefined
\let\newlabel\oldnewlabel
\fi}
\fi}
\global\let\hyper@last\relax 
\gdef\HyperFirstAtBeginDocument#1{#1}
\providecommand\HyField@AuxAddToFields[1]{}
\providecommand\HyField@AuxAddToCoFields[2]{}
\providecommand \oddpage@label [2]{}
\ifx\qr@savematrix\@undefined\def\qr@savematrix{\begingroup\let\do\@makeother\dospecials\catcode`\{=1\catcode`\}=2\relax \qr@savematrix@int}\def\qr@savematrix@int#1#2#3#4{\endgroup}\fi
\babel@aux{french}{}
\babel@aux{french}{}
\@writefile{toc}{\contentsline {chapter}{\numberline {2}Géométrie et nombres}{1}{chapter.2}\protected@file@percent }
\@writefile{lof}{\addvspace {10\p@ }}
\@writefile{lot}{\addvspace {10\p@ }}
\savepicturepage{pgfid2}{1}
\pgfsyspdfmark {pgfid2}{0}{51651631}
\savepicturepage{pgfid1}{1}
\pgfsyspdfmark {pgfid1}{3729359}{45148499}
\@writefile{toc}{\contentsline {section}{\numberline {2.1}Cercle et disque}{1}{section.2.1}\protected@file@percent }
\@writefile{toc}{\contentsline {section}{\numberline {2.2}Triangles}{1}{section.2.2}\protected@file@percent }
\@writefile{toc}{\contentsline {subsection}{\numberline {2.2.1}Généralités}{1}{subsection.2.2.1}\protected@file@percent }
\@writefile{toc}{\contentsline {subsection}{\numberline {2.2.2}Théorème de Pythagore}{2}{subsection.2.2.2}\protected@file@percent }
\@writefile{toc}{\contentsline {paragraph}{Remarque}{2}{subsection.2.2.2}\protected@file@percent }
\@writefile{toc}{\contentsline {subsection}{\numberline {2.2.3}Théorème de Thalès}{2}{subsection.2.2.3}\protected@file@percent }
\@writefile{toc}{\contentsline {paragraph}{Remarque}{2}{subsection.2.2.3}\protected@file@percent }
\@writefile{toc}{\contentsline {subsection}{\numberline {2.2.4}Trigonométrie dans le triangle rectangle}{3}{subsection.2.2.4}\protected@file@percent }
\@writefile{toc}{\contentsline {section}{\numberline {2.3}Surfaces}{3}{section.2.3}\protected@file@percent }
\@writefile{toc}{\contentsline {section}{\numberline {2.4}Volumes}{4}{section.2.4}\protected@file@percent }
\@writefile{toc}{\contentsline {section}{\numberline {2.5}Exercices}{5}{section.2.5}\protected@file@percent }
\csgdef{tcb@ehg@height@REG@1}{110.10016pt}
\csgdef{tcb@ehg@height@REG@2}{62.04613pt}
\csgdef{tcb@ehg@height@REG@3}{180.02853pt}
\csgdef{tcb@ehg@height@REG@4}{167.4969pt}
\csgdef{tcb@ehg@height@REG@5}{204.30237pt}
\csgdef{tcb@ehg@height@REG@6}{169.83551pt}
\newlabel{LastPage}{{}{7}{}{page.7}{}}
\xdef\lastpage@lastpage{7}
\xdef\lastpage@lastpageHy{7}
\gdef \@abspage@last{7}
