\BOOKMARK [0][-]{chapter.9}{\376\377\000N\000o\000t\000i\000o\000n\000\040\000d\000e\000\040\000p\000e\000n\000t\000e}{}% 1
\BOOKMARK [1][-]{section.9.1}{\376\377\000E\000t\000u\000d\000e\000\040\000d\000'\000u\000n\000e\000\040\000a\000t\000t\000r\000a\000c\000t\000i\000o\000n}{chapter.9}% 2
\BOOKMARK [1][-]{section.9.2}{\376\377\000E\000x\000e\000r\000c\000i\000c\000e\000s}{chapter.9}% 3
