\BOOKMARK [0][-]{chapter.3}{\376\377\000P\000r\000o\000b\000l\000\350\000m\000e\000s}{}% 1
\BOOKMARK [1][-]{section.3.1}{\376\377\000R\000a\000p\000p\000e\000l\000\040\000c\000o\000n\000c\000e\000r\000n\000a\000n\000t\000\040\000l\000e\000s\000\040\000\351\000q\000u\000a\000t\000i\000o\000n\000s}{chapter.3}% 2
\BOOKMARK [1][-]{section.3.2}{\376\377\000M\000\351\000t\000h\000o\000d\000e\000\040\000g\000\351\000n\000\351\000r\000a\000l\000e\000\040\000d\000e\000\040\000r\000\351\000s\000o\000l\000u\000t\000i\000o\000n\000\040\000d\000'\000u\000n\000\040\000p\000r\000o\000b\000l\000\350\000m\000e}{chapter.3}% 3
\BOOKMARK [1][-]{section.3.3}{\376\377\000P\000r\000o\000b\000l\000\350\000m\000e\000s\000\040\000\340\000\040\000r\000\351\000s\000o\000u\000d\000r\000e}{chapter.3}% 4
