\BOOKMARK [0][-]{chapter.7}{\376\377\000P\000r\000o\000p\000o\000r\000t\000i\000o\000n\000n\000a\000l\000i\000t\000\351}{}% 1
\BOOKMARK [1][-]{section.7.1}{\376\377\000D\000\351\000f\000i\000n\000i\000t\000i\000o\000n\000\040\000e\000t\000\040\000m\000\351\000t\000h\000o\000d\000e\000s}{chapter.7}% 2
\BOOKMARK [1][-]{section.7.2}{\376\377\000A\000p\000p\000l\000i\000c\000a\000t\000i\000o\000n\000s}{chapter.7}% 3
\BOOKMARK [1][-]{section.7.3}{\376\377\000E\000x\000e\000r\000c\000i\000c\000e\000s}{chapter.7}% 4
