\relax 
\providecommand\babel@aux[2]{}
\@nameuse{bbl@beforestart}
\providecommand\hyper@newdestlabel[2]{}
\providecommand\HyperFirstAtBeginDocument{\AtBeginDocument}
\HyperFirstAtBeginDocument{\ifx\hyper@anchor\@undefined
\global\let\oldnewlabel\newlabel
\gdef\newlabel#1#2{\newlabelxx{#1}#2}
\gdef\newlabelxx#1#2#3#4#5#6{\oldnewlabel{#1}{{#2}{#3}}}
\AtEndDocument{\ifx\hyper@anchor\@undefined
\let\newlabel\oldnewlabel
\fi}
\fi}
\global\let\hyper@last\relax 
\gdef\HyperFirstAtBeginDocument#1{#1}
\providecommand\HyField@AuxAddToFields[1]{}
\providecommand\HyField@AuxAddToCoFields[2]{}
\ExplSyntaxOn \cs_if_free:NT \pgfsyspdfmark {\cs_set_eq:NN \pgfsyspdfmark \@gobblethree }\ExplSyntaxOff 
\ExplSyntaxOn 
\char_set_catcode_space:n {32}
\tl_gset:cn {c__nicematrix_1_tl}{\seq_gset_from_clist:Nn \g__nicematrix_size_seq {1,2,2,1,13,13}}
\ExplSyntaxOff 
\ExplSyntaxOn 
\char_set_catcode_space:n {32}
\tl_gset:cn {c__nicematrix_2_tl}{\seq_gset_from_clist:Nn \g__nicematrix_size_seq {1,2,2,1,13,13}}
\ExplSyntaxOff 
\providecommand \oddpage@label [2]{}
\ifx\qr@savematrix\@undefined\def\qr@savematrix{\begingroup\let\do\@makeother\dospecials\catcode`\{=1\catcode`\}=2\relax \qr@savematrix@int}\def\qr@savematrix@int#1#2#3#4{\endgroup}\fi
\babel@aux{french}{}
\babel@aux{french}{}
\@writefile{toc}{\contentsline {chapter}{\numberline {1}Analyses statistiques}{1}{chapter.1}\protected@file@percent }
\@writefile{lof}{\addvspace {10\p@ }}
\@writefile{lot}{\addvspace {10\p@ }}
\pgfsyspdfmark {nm-1-position}{3729359}{26665297}
\pgfsyspdfmark {pgfid3}{3729359}{26665297}
\pgfsyspdfmark {pgfid4}{3729359}{26665297}
\pgfsyspdfmark {nm-1-row-1}{3729359}{27842760}
\pgfsyspdfmark {pgfid6}{3729359}{27855867}
\pgfsyspdfmark {pgfid7}{4122575}{27167742}
\pgfsyspdfmark {pgfid8}{6590635}{27167742}
\pgfsyspdfmark {pgfid9}{10544381}{27167742}
\pgfsyspdfmark {pgfid10}{12729321}{27167742}
\pgfsyspdfmark {pgfid11}{14914261}{27167742}
\pgfsyspdfmark {pgfid12}{17099201}{27167742}
\pgfsyspdfmark {pgfid13}{19284141}{27167742}
\pgfsyspdfmark {pgfid14}{21469081}{27167742}
\pgfsyspdfmark {pgfid15}{23654021}{27167742}
\pgfsyspdfmark {pgfid16}{25838961}{27167742}
\pgfsyspdfmark {pgfid17}{28023901}{27167742}
\pgfsyspdfmark {pgfid18}{30208841}{27167742}
\pgfsyspdfmark {pgfid19}{32393781}{27167742}
\pgfsyspdfmark {pgfid20}{34578721}{27167742}
\pgfsyspdfmark {nm-1-row-2}{3729359}{26859720}
\pgfsyspdfmark {pgfid21}{3729359}{26872827}
\pgfsyspdfmark {pgfid22}{5373315}{26184702}
\pgfsyspdfmark {pgfid23}{6590635}{26184702}
\pgfsyspdfmark {pgfid24}{10544381}{26184702}
\pgfsyspdfmark {pgfid25}{12729321}{26184702}
\pgfsyspdfmark {pgfid26}{14914261}{26184702}
\pgfsyspdfmark {pgfid27}{17099201}{26184702}
\pgfsyspdfmark {pgfid28}{19284141}{26184702}
\pgfsyspdfmark {pgfid29}{21469081}{26184702}
\pgfsyspdfmark {pgfid30}{23654021}{26184702}
\pgfsyspdfmark {pgfid31}{25838961}{26184702}
\pgfsyspdfmark {pgfid32}{28023901}{26184702}
\pgfsyspdfmark {pgfid33}{30208841}{26184702}
\pgfsyspdfmark {pgfid34}{32393781}{26184702}
\pgfsyspdfmark {pgfid35}{34578721}{26184702}
\pgfsyspdfmark {nm-1-row-3}{3729359}{25876680}
\pgfsyspdfmark {pgfid36}{3729359}{25889787}
\pgfsyspdfmark {nm-1-col-1}{3742466}{25889787}
\pgfsyspdfmark {pgfid37}{3729359}{25889787}
\pgfsyspdfmark {nm-1-col-2}{9438804}{25889787}
\pgfsyspdfmark {pgfid38}{9451911}{25889787}
\pgfsyspdfmark {nm-1-col-3}{11623744}{25889787}
\pgfsyspdfmark {pgfid39}{11636851}{25889787}
\pgfsyspdfmark {nm-1-col-4}{13808684}{25889787}
\pgfsyspdfmark {pgfid40}{13821791}{25889787}
\pgfsyspdfmark {nm-1-col-5}{15993624}{25889787}
\pgfsyspdfmark {pgfid41}{16006731}{25889787}
\pgfsyspdfmark {nm-1-col-6}{18178564}{25889787}
\pgfsyspdfmark {pgfid42}{18191671}{25889787}
\pgfsyspdfmark {nm-1-col-7}{20363504}{25889787}
\pgfsyspdfmark {pgfid43}{20376611}{25889787}
\pgfsyspdfmark {nm-1-col-8}{22548444}{25889787}
\pgfsyspdfmark {pgfid44}{22561551}{25889787}
\pgfsyspdfmark {nm-1-col-9}{24733384}{25889787}
\pgfsyspdfmark {pgfid45}{24746491}{25889787}
\pgfsyspdfmark {nm-1-col-10}{26918324}{25889787}
\pgfsyspdfmark {pgfid46}{26931431}{25889787}
\pgfsyspdfmark {nm-1-col-11}{29103264}{25889787}
\pgfsyspdfmark {pgfid47}{29116371}{25889787}
\pgfsyspdfmark {nm-1-col-12}{31288204}{25889787}
\pgfsyspdfmark {pgfid48}{31301311}{25889787}
\pgfsyspdfmark {nm-1-col-13}{33473144}{25889787}
\pgfsyspdfmark {pgfid49}{33486251}{25889787}
\pgfsyspdfmark {nm-1-col-14}{35658084}{25889787}
\pgfsyspdfmark {pgfid50}{35671191}{25889787}
\pgfsyspdfmark {pgfid51}{35671191}{26665297}
\savepicturepage{pgfid53}{1}
\pgfsyspdfmark {pgfid53}{35671191}{26665297}
\pgfsyspdfmark {pgfid54}{35671191}{26665297}
\pgfsyspdfmark {pgfid55}{35671191}{26665297}
\pgfsyspdfmark {pgfid56}{35671191}{26665297}
\pgfsyspdfmark {pgfid57}{35671191}{26665297}
\pgfsyspdfmark {pgfid58}{35671191}{26665297}
\pgfsyspdfmark {pgfid59}{35671191}{26665297}
\pgfsyspdfmark {pgfid60}{35671191}{26665297}
\pgfsyspdfmark {pgfid61}{35671191}{26665297}
\pgfsyspdfmark {pgfid62}{35671191}{26665297}
\pgfsyspdfmark {pgfid63}{35671191}{26665297}
\pgfsyspdfmark {pgfid64}{35671191}{26665297}
\pgfsyspdfmark {pgfid65}{35671191}{26665297}
\pgfsyspdfmark {pgfid66}{35671191}{26665297}
\pgfsyspdfmark {pgfid67}{35671191}{26665297}
\pgfsyspdfmark {pgfid68}{35671191}{26665297}
\pgfsyspdfmark {pgfid69}{35671191}{26665297}
\pgfsyspdfmark {pgfid70}{35671191}{26665297}
\pgfsyspdfmark {nm-2-position}{3729359}{24053221}
\pgfsyspdfmark {pgfid72}{3729359}{24053221}
\pgfsyspdfmark {pgfid73}{3729359}{24053221}
\pgfsyspdfmark {nm-2-row-1}{3729359}{25230684}
\pgfsyspdfmark {pgfid75}{3729359}{25243791}
\pgfsyspdfmark {pgfid76}{4122575}{24555666}
\pgfsyspdfmark {pgfid77}{6595551}{24555666}
\pgfsyspdfmark {pgfid78}{10554213}{24555666}
\pgfsyspdfmark {pgfid79}{12739153}{24555666}
\pgfsyspdfmark {pgfid80}{14924093}{24555666}
\pgfsyspdfmark {pgfid81}{17109033}{24555666}
\pgfsyspdfmark {pgfid82}{19293973}{24555666}
\pgfsyspdfmark {pgfid83}{21478913}{24555666}
\pgfsyspdfmark {pgfid84}{23663853}{24555666}
\pgfsyspdfmark {pgfid85}{25848793}{24555666}
\pgfsyspdfmark {pgfid86}{28033733}{24555666}
\pgfsyspdfmark {pgfid87}{30218673}{24555666}
\pgfsyspdfmark {pgfid88}{32403613}{24555666}
\pgfsyspdfmark {pgfid89}{34588553}{24555666}
\pgfsyspdfmark {nm-2-row-2}{3729359}{24247644}
\pgfsyspdfmark {pgfid90}{3729359}{24260751}
\pgfsyspdfmark {pgfid91}{5378231}{23572626}
\pgfsyspdfmark {pgfid92}{6595551}{23572626}
\pgfsyspdfmark {pgfid93}{10554213}{23572626}
\pgfsyspdfmark {pgfid94}{12739153}{23572626}
\pgfsyspdfmark {pgfid95}{14924093}{23572626}
\pgfsyspdfmark {pgfid96}{17109033}{23572626}
\pgfsyspdfmark {pgfid97}{19293973}{23572626}
\pgfsyspdfmark {pgfid98}{21478913}{23572626}
\pgfsyspdfmark {pgfid99}{23663853}{23572626}
\pgfsyspdfmark {pgfid100}{25848793}{23572626}
\pgfsyspdfmark {pgfid101}{28033733}{23572626}
\pgfsyspdfmark {pgfid102}{30218673}{23572626}
\pgfsyspdfmark {pgfid103}{32403613}{23572626}
\pgfsyspdfmark {pgfid104}{34588553}{23572626}
\pgfsyspdfmark {nm-2-row-3}{3729359}{23264604}
\pgfsyspdfmark {pgfid105}{3729359}{23277711}
\pgfsyspdfmark {nm-2-col-1}{3742466}{23277711}
\pgfsyspdfmark {pgfid106}{3729359}{23277711}
\pgfsyspdfmark {nm-2-col-2}{9448636}{23277711}
\pgfsyspdfmark {pgfid107}{9461743}{23277711}
\pgfsyspdfmark {nm-2-col-3}{11633576}{23277711}
\pgfsyspdfmark {pgfid108}{11646683}{23277711}
\pgfsyspdfmark {nm-2-col-4}{13818516}{23277711}
\pgfsyspdfmark {pgfid109}{13831623}{23277711}
\pgfsyspdfmark {nm-2-col-5}{16003456}{23277711}
\pgfsyspdfmark {pgfid110}{16016563}{23277711}
\pgfsyspdfmark {nm-2-col-6}{18188396}{23277711}
\pgfsyspdfmark {pgfid111}{18201503}{23277711}
\pgfsyspdfmark {nm-2-col-7}{20373336}{23277711}
\pgfsyspdfmark {pgfid112}{20386443}{23277711}
\pgfsyspdfmark {nm-2-col-8}{22558276}{23277711}
\pgfsyspdfmark {pgfid113}{22571383}{23277711}
\pgfsyspdfmark {nm-2-col-9}{24743216}{23277711}
\pgfsyspdfmark {pgfid114}{24756323}{23277711}
\pgfsyspdfmark {nm-2-col-10}{26928156}{23277711}
\pgfsyspdfmark {pgfid115}{26941263}{23277711}
\pgfsyspdfmark {nm-2-col-11}{29113096}{23277711}
\pgfsyspdfmark {pgfid116}{29126203}{23277711}
\pgfsyspdfmark {nm-2-col-12}{31298036}{23277711}
\pgfsyspdfmark {pgfid117}{31311143}{23277711}
\pgfsyspdfmark {nm-2-col-13}{33482976}{23277711}
\pgfsyspdfmark {pgfid118}{33496083}{23277711}
\pgfsyspdfmark {nm-2-col-14}{35667916}{23277711}
\pgfsyspdfmark {pgfid119}{35681023}{23277711}
\pgfsyspdfmark {pgfid120}{35681023}{24053221}
\savepicturepage{pgfid122}{1}
\pgfsyspdfmark {pgfid122}{35681023}{24053221}
\pgfsyspdfmark {pgfid123}{35681023}{24053221}
\pgfsyspdfmark {pgfid124}{35681023}{24053221}
\pgfsyspdfmark {pgfid125}{35681023}{24053221}
\pgfsyspdfmark {pgfid126}{35681023}{24053221}
\pgfsyspdfmark {pgfid127}{35681023}{24053221}
\pgfsyspdfmark {pgfid128}{35681023}{24053221}
\pgfsyspdfmark {pgfid129}{35681023}{24053221}
\pgfsyspdfmark {pgfid130}{35681023}{24053221}
\pgfsyspdfmark {pgfid131}{35681023}{24053221}
\pgfsyspdfmark {pgfid132}{35681023}{24053221}
\pgfsyspdfmark {pgfid133}{35681023}{24053221}
\pgfsyspdfmark {pgfid134}{35681023}{24053221}
\pgfsyspdfmark {pgfid135}{35681023}{24053221}
\pgfsyspdfmark {pgfid136}{35681023}{24053221}
\pgfsyspdfmark {pgfid137}{35681023}{24053221}
\pgfsyspdfmark {pgfid138}{35681023}{24053221}
\pgfsyspdfmark {pgfid139}{35681023}{24053221}
\newlabel{LastPage}{{}{2}{}{page.2}{}}
\xdef\lastpage@lastpage{2}
\xdef\lastpage@lastpageHy{2}
\gdef \@abspage@last{4}
