\relax 
\providecommand\babel@aux[2]{}
\@nameuse{bbl@beforestart}
\providecommand\hyper@newdestlabel[2]{}
\providecommand\HyperFirstAtBeginDocument{\AtBeginDocument}
\HyperFirstAtBeginDocument{\ifx\hyper@anchor\@undefined
\global\let\oldnewlabel\newlabel
\gdef\newlabel#1#2{\newlabelxx{#1}#2}
\gdef\newlabelxx#1#2#3#4#5#6{\oldnewlabel{#1}{{#2}{#3}}}
\AtEndDocument{\ifx\hyper@anchor\@undefined
\let\newlabel\oldnewlabel
\fi}
\fi}
\global\let\hyper@last\relax 
\gdef\HyperFirstAtBeginDocument#1{#1}
\providecommand\HyField@AuxAddToFields[1]{}
\providecommand\HyField@AuxAddToCoFields[2]{}
\providecommand \oddpage@label [2]{}
\ifx\qr@savematrix\@undefined\def\qr@savematrix{\begingroup\let\do\@makeother\dospecials\catcode`\{=1\catcode`\}=2\relax \qr@savematrix@int}\def\qr@savematrix@int#1#2#3#4{\endgroup}\fi
\babel@aux{french}{}
\babel@aux{french}{}
\@writefile{toc}{\contentsline {chapter}{\numberline {1}Fonctions et Proportionnalité}{1}{chapter.1}\protected@file@percent }
\@writefile{lof}{\addvspace {10\p@ }}
\@writefile{lot}{\addvspace {10\p@ }}
\savepicturepage{pgfid2}{1}
\pgfsyspdfmark {pgfid2}{10503046}{34023274}
\savepicturepage{pgfid3}{1}
\pgfsyspdfmark {pgfid3}{15903573}{34121578}
\savepicturepage{pgfid4}{1}
\pgfsyspdfmark {pgfid4}{10503046}{32548715}
\savepicturepage{pgfid5}{1}
\pgfsyspdfmark {pgfid5}{15903573}{32647019}
\savepicturepage{pgfid6}{1}
\pgfsyspdfmark {pgfid6}{10503046}{31074156}
\savepicturepage{pgfid7}{1}
\pgfsyspdfmark {pgfid7}{15903573}{31172460}
\savepicturepage{pgfid13}{1}
\pgfsyspdfmark {pgfid13}{10503046}{49595073}
\savepicturepage{pgfid14}{1}
\pgfsyspdfmark {pgfid14}{15903573}{49693377}
\savepicturepage{pgfid15}{1}
\pgfsyspdfmark {pgfid15}{10503046}{48120514}
\savepicturepage{pgfid16}{1}
\pgfsyspdfmark {pgfid16}{15903573}{48218818}
\savepicturepage{pgfid17}{1}
\pgfsyspdfmark {pgfid17}{10503046}{46645955}
\savepicturepage{pgfid18}{1}
\pgfsyspdfmark {pgfid18}{15903573}{46744259}
\savepicturepage{pgfid19}{1}
\pgfsyspdfmark {pgfid19}{35828323}{47716371}
\savepicturepage{pgfid20}{1}
\pgfsyspdfmark {pgfid20}{35828323}{47716371}
\savepicturepage{pgfid21}{1}
\pgfsyspdfmark {pgfid21}{35828323}{47716371}
\newlabel{LastPage}{{}{2}{}{page.2}{}}
\xdef\lastpage@lastpage{2}
\xdef\lastpage@lastpageHy{2}
\gdef \@abspage@last{4}
