\relax 
\providecommand\babel@aux[2]{}
\@nameuse{bbl@beforestart}
\providecommand\hyper@newdestlabel[2]{}
\providecommand*\HyPL@Entry[1]{}
\providecommand\wrapstuff@label[2]{}
\HyPL@Entry{0<</S/D>>}
\providecommand \oddpage@label [2]{}
\ifx\qr@savematrix\@undefined\def\qr@savematrix{\begingroup\let\do\@makeother\dospecials\catcode`\{=1\catcode`\}=2\relax \qr@savematrix@int}\def\qr@savematrix@int#1#2#3#4{\endgroup}\fi
\babel@aux{french}{}
\babel@aux{french}{}
\@writefile{toc}{\contentsline {chapter}{\numberline {1}Probabilités}{1}{chapter.1}\protected@file@percent }
\@writefile{lof}{\addvspace {10\p@ }}
\@writefile{lot}{\addvspace {10\p@ }}
\savepicturepage{pgfid2}{1}
\pgfsyspdfmark {pgfid2}{4297332}{48425299}
\savepicturepage{pgfid3}{1}
\pgfsyspdfmark {pgfid3}{4297332}{48425299}
\savepicturepage{pgfid1}{1}
\pgfsyspdfmark {pgfid1}{4297332}{48425299}
\@writefile{toc}{\contentsline {section}{\numberline {1.1}Une première situation}{1}{section.1.1}\protected@file@percent }
\savepicturepage{pgfid6}{1}
\pgfsyspdfmark {pgfid6}{25694771}{31157222}
\@writefile{toc}{\contentsline {section}{\numberline {1.2}Remarques, Définitions et notations}{2}{section.1.2}\protected@file@percent }
\savepicturepage{pgfid10}{2}
\pgfsyspdfmark {pgfid10}{21719542}{31870796}
\@writefile{toc}{\contentsline {section}{\numberline {1.3}Notation avec des ensembles}{3}{section.1.3}\protected@file@percent }
\savepicturepage{pgfid14}{3}
\pgfsyspdfmark {pgfid14}{10047522}{18965592}
\@writefile{toc}{\contentsline {section}{\numberline {1.4}Arbres de probabilités}{4}{section.1.4}\protected@file@percent }
\@writefile{toc}{\contentsline {section}{\numberline {1.5}Exercices}{6}{section.1.5}\protected@file@percent }
\HyPL@Entry{7<</S/D>>}
\newlabel{LastPage}{{1}{3}{Exercices}{page.3}{}}
\gdef\lastpage@lastpage{3}
\gdef\lastpage@lastpageHy{3}
\gdef \@abspage@last{10}
