\BOOKMARK [0][-]{chapter.1}{\376\377\000P\000r\000o\000b\000a\000b\000i\000l\000i\000t\000\351\000s}{}% 1
\BOOKMARK [1][-]{section.1.1}{\376\377\000U\000n\000e\000\040\000p\000r\000e\000m\000i\000\350\000r\000e\000\040\000s\000i\000t\000u\000a\000t\000i\000o\000n}{chapter.1}% 2
\BOOKMARK [1][-]{section.1.2}{\376\377\000R\000e\000m\000a\000r\000q\000u\000e\000s\000,\000\040\000D\000\351\000f\000i\000n\000i\000t\000i\000o\000n\000s\000\040\000e\000t\000\040\000n\000o\000t\000a\000t\000i\000o\000n\000s}{chapter.1}% 3
\BOOKMARK [1][-]{section.1.3}{\376\377\000N\000o\000t\000a\000t\000i\000o\000n\000\040\000a\000v\000e\000c\000\040\000d\000e\000s\000\040\000e\000n\000s\000e\000m\000b\000l\000e\000s}{chapter.1}% 4
\BOOKMARK [1][-]{section.1.4}{\376\377\000A\000r\000b\000r\000e\000s\000\040\000d\000e\000\040\000p\000r\000o\000b\000a\000b\000i\000l\000i\000t\000\351\000s}{chapter.1}% 5
\BOOKMARK [1][-]{section.1.5}{\376\377\000E\000x\000e\000r\000c\000i\000c\000e\000s}{chapter.1}% 6
