\relax 
\providecommand\babel@aux[2]{}
\@nameuse{bbl@beforestart}
\providecommand\hyper@newdestlabel[2]{}
\providecommand*\HyPL@Entry[1]{}
\HyPL@Entry{0<</S/D>>}
\providecommand \oddpage@label [2]{}
\ifx\qr@savematrix\@undefined\def\qr@savematrix{\begingroup\let\do\@makeother\dospecials\catcode`\{=1\catcode`\}=2\relax \qr@savematrix@int}\def\qr@savematrix@int#1#2#3#4{\endgroup}\fi
\babel@aux{french}{}
\babel@aux{french}{}
\@writefile{toc}{\contentsline {chapter}{\numberline {4}Concentration massique}{1}{chapter.4}\protected@file@percent }
\@writefile{lof}{\addvspace {10\p@ }}
\@writefile{lot}{\addvspace {10\p@ }}
\savepicturepage{pgfid2}{1}
\pgfsyspdfmark {pgfid2}{4297332}{48425299}
\savepicturepage{pgfid3}{1}
\pgfsyspdfmark {pgfid3}{4297332}{48425299}
\savepicturepage{pgfid1}{1}
\pgfsyspdfmark {pgfid1}{4297332}{48425299}
\newlabel{gmp@finallabel}{{1}{2}{Concentration massique}{gmp@count.1}{}}
\newlabel{LastPage}{{1}{2}{Concentration massique}{page.2}{}}
\gdef\lastpage@lastpage{2}
\gdef\lastpage@lastpageHy{2}
\gdef \@abspage@last{2}
